{
  "feed": {
    "1": {
      "pings": [
        {
          "id": "1",
          "author": "Fulaninho de Tal",
          "authorId": "1",
          "usertag": "fulaninho",
          "content": "Você nem é daqui, você vem tretar mano!",
          "pictureURL": "https://avataaars.io/?avatarStyle=Circle&topType=WinterHat1&accessoriesType=Round&hatColor=Gray02&hairColor=PastelPink&facialHairType=BeardMajestic&facialHairColor=Red&clotheType=ShirtScoopNeck&clotheColor=Gray02&eyeType=WinkWacky&eyebrowType=DefaultNatural&mouthType=Grimace&skinColor=Yellow",
          "counts": {
            "likes": "12",
            "replies": "2",
            "pongs": "0"
          },
          "replies": [
            {
              "id": "2",
              "author": "Chapeleiro Maluco",
              "authorId": "1",
              "usertag": "chapeleiro",
              "content": "Resposta 1",
              "pictureURL": "https://avataaars.io/?avatarStyle=Circle&topType=WinterHat4&accessoriesType=Round&hatColor=Red&hairColor=SilverGray&facialHairType=MoustacheFancy&facialHairColor=Brown&clotheType=ShirtScoopNeck&clotheColor=Blue02&eyeType=Surprised&eyebrowType=UnibrowNatural&mouthType=Serious&skinColor=Pale",
              "counts": {
                "likes": "12",
                "replies": "2",
                "pongs": "0"
              }
            },
            {
              "id": "3",
              "author": "Fuinha do Inverno",
              "authorId": "1",
              "usertag": "fuinha",
              "content": "Resposta 2",
              "pictureURL": "https://avataaars.io/?avatarStyle=Circle&topType=LongHairStraight&accessoriesType=Blank&hairColor=BrownDark&facialHairType=Blank&clotheType=BlazerShirt&eyeType=Default&eyebrowType=Default&mouthType=Default&skinColor=Light",
              "counts": {
                "likes": "12",
                "replies": "2",
                "pongs": "0"
              }
            }
          ]
        },
        {
          "id": "4",
          "author": "Xico das Trevas",
          "authorId": "2",
          "usertag": "xico",
          "content": "Estou dando consultoria...",
          "pictureURL": "https://avataaars.io/?avatarStyle=Circle&topType=WinterHat3&accessoriesType=Wayfarers&hatColor=Pink&facialHairType=BeardMedium&facialHairColor=BrownDark&clotheType=ShirtCrewNeck&clotheColor=Red&eyeType=Close&eyebrowType=DefaultNatural&mouthType=Vomit&skinColor=Pale",
          "counts": {
            "likes": "12",
            "replies": "2",
            "pongs": "0"
          },
          "replies": []
        },
        {
          "id": "5",
          "author": "Texugo Estelar",
          "authorId": "3",
          "usertag": "texugo",
          "content": "Quem me indicar e rasgar seda, eu faço uma fezinha aqui!",
          "pictureURL": "https://avataaars.io/?avatarStyle=Circle&topType=ShortHairSides&accessoriesType=Kurt&hairColor=PastelPink&facialHairType=BeardMajestic&facialHairColor=Auburn&clotheType=BlazerShirt&eyeType=Wink&eyebrowType=SadConcernedNatural&mouthType=Tongue&skinColor=DarkBrown",
          "counts": {
            "likes": "12",
            "replies": "2",
            "pongs": "0"
          },
          "replies": [
            {
              "id": "6",
              "author": "Estrela Caída",
              "authorId": "1",
              "usertag": "estrela",
              "content": "Resposta 3",
              "pictureURL": "https://avataaars.io/?avatarStyle=Circle&topType=LongHairStraight2&accessoriesType=Prescription02&hairColor=PastelPink&facialHairType=MoustacheFancy&facialHairColor=Platinum&clotheType=ShirtCrewNeck&clotheColor=PastelRed&eyeType=WinkWacky&eyebrowType=Default&mouthType=Smile&skinColor=Light",
              "counts": {
                "likes": "12",
                "replies": "2",
                "pongs": "0"
              }
            }
          ]
        }
      ]
    },
    "2": {
      "pings": [
        {
          "id": "7",
          "author": "Texugo Estelar",
          "authorId": "3",
          "usertag": "texugo",
          "content": "Ele finge que vai derrubar as coisas nos outros, acho ele simpático!",
          "pictureURL": "https://avataaars.io/?avatarStyle=Circle&topType=ShortHairSides&accessoriesType=Kurt&hairColor=PastelPink&facialHairType=BeardMajestic&facialHairColor=Auburn&clotheType=BlazerShirt&eyeType=Wink&eyebrowType=SadConcernedNatural&mouthType=Tongue&skinColor=DarkBrown",
          "counts": {
            "likes": "12",
            "replies": "2",
            "pongs": "0"
          },
          "replies": []
        },
        {
          "id": "8",
          "author": "Andarilho Linfático",
          "authorId": "4",
          "usertag": "andarilho",
          "content": "CSS is my passion",
          "pictureURL": "https://avataaars.io/?avatarStyle=Circle&topType=ShortHairFrizzle&accessoriesType=Sunglasses&hairColor=Black&facialHairType=Blank&facialHairColor=BlondeGolden&clotheType=BlazerShirt&clotheColor=Gray01&eyeType=Cry&eyebrowType=UnibrowNatural&mouthType=Eating&skinColor=Yellow",
          "counts": {
            "likes": "12",
            "replies": "2",
            "pongs": "0"
          },
          "replies": []
        },
        {
          "id": "9",
          "author": "Admirador Desprezado",
          "authorId": "5",
          "usertag": "admirador",
          "content": "Estou perdendo as esperanças, pois falhei em todas as tentativas. Enough is enough.",
          "pictureURL": "https://avataaars.io/?avatarStyle=Circle&topType=NoHair&accessoriesType=Sunglasses&hairColor=PastelPink&facialHairType=MoustacheMagnum&facialHairColor=Red&clotheType=Hoodie&clotheColor=Blue03&graphicType=SkullOutline&eyeType=Squint&eyebrowType=SadConcerned&mouthType=Grimace&skinColor=Tanned",
          "counts": {
            "likes": "12",
            "replies": "2",
            "pongs": "0"
          },
          "replies": []
        }
      ]
    }
  }
}
